// ins_sandstorm_rc2 by Hardcell
// Overview by [baloku] Pit'
// 
"resources"
{
"maps/ins_sandstorm_rc2.res" "file"
"maps/ins_sandstorm_rc2.bsp" "file"
"maps/ins_sandstorm_rc2.imc2" "file"
"materials/maps/overviews/sandstorm_rc2.vmt" "file"
"materials/maps/overviews/sandstorm_rc2.vtf" "file"
"resource/overviews/sandstorm_rc2.txt" "file"
}
