// ins_basecamp_rc3
"resources"
{
"maps/ins_basecamp_rc3.res" "file"
"maps/ins_basecamp_rc3.bsp" "file"
"maps/ins_basecamp_rc3.imc2" "file"
"materials/maps/overviews/ins_basecamp_rc3.vmt" "file"
"materials/maps/overviews/ins_basecamp_rc3.vtf" "file"
"resource/overviews/ins_basecamp_rc3.txt" "file"
}
