//Map by Hardcell
//Released in july 2010
"resources"
{
"maps/ins_vietnam_rc3.res" "file"
"maps/ins_vietnam_rc3.bsp" "file"
"maps/ins_vietnam_rc3.imc2" "file"
"maps/ins_vietnam_rc3.sps" "file"
"materials/maps/overviews/ins_vietnam_rc3.vmt" "file"
"materials/maps/overviews/ins_vietnam_rc3.vtf" "file"
"materials/VGUI/conflict/ins_vietnam_rc3.vtf" "file"
"materials/VGUI/conflict/ins_vietnam_rc3.vmt" "file"
"resource/overviews/ins_vietnam_rc3.txt" "file"
}
